Track name, Artist name, Album, Playlist name, Type, ISRC
Watermelon In Easter Hay,Frank Zappa,"Joe's Garage Acts I, II & III",koyu's rock show #1,Playlist track,USZPE1200277
Stairway to Heaven - 2012 Remaster,Led Zeppelin,Led Zeppelin IV (Deluxe Edition; Remaster),koyu's rock show #1,Playlist track,USAT21300959
Marooned - 2011 Remaster,Pink Floyd,The Division Bell (2011 Remastered Version),koyu's rock show #1,Playlist track,GBN9X1100015
Highway to Hell,AC/DC,Highway to Hell,koyu's rock show #1,Playlist track,AUAP07900028
Child in Time - 1995 Remaster,Deep Purple,Deep Purple in Rock (Anniversary Edition),koyu's rock show #1,Playlist track,GBDXG0600118
Enter Sandman,Metallica,Metallica,koyu's rock show #1,Playlist track,GBF089190013
The Last Refugee,Roger Waters,Is This The Life We Really Want?,koyu's rock show #1,Playlist track,USSM11702722
