Track name, Artist name, Album, Playlist name, Type, ISRC
Would?,Alice In Chains,Dirt,koyu's rock show #10,Playlist track,USSM19200805
Cities On Flame with Rock and Roll,Blue Öyster Cult,Blue Oyster Cult,koyu's rock show #10,Playlist track,USSM17100736
Working Man,Rush,Rush,koyu's rock show #10,Playlist track,USMR17407513
In My Darkest Hour - Remastered 2004,Megadeth,"So Far, So Good...So What! (2004 Remaster)",koyu's rock show #10,Playlist track,USCA20400607
Black Sunshine,White Zombie,La Sexorcisto: Devil Music Volume 1,koyu's rock show #10,Playlist track,USIR10000378
Institutionalized,Suicidal Tendencies,Suicidal Tendencies,koyu's rock show #10,Playlist track,USA6P0800021
Peace Sells - Remastered,Megadeth,Peace Sells...But Who's Buying?,koyu's rock show #10,Playlist track,USCA20400658
Panama - 2015 Remaster,Van Halen,1984 (Remastered),koyu's rock show #10,Playlist track,USWB11403681
Tornado Of Souls - Remastered 2004,Megadeth,Rust In Peace,koyu's rock show #10,Playlist track,USCA20400653
Highway Star - Remastered 2012,Deep Purple,Machine Head (Remastered),koyu's rock show #10,Playlist track,GBDXG1200002
The Spirit Of Radio,Rush,Permanent Waves,koyu's rock show #10,Playlist track,USMR18070028
"Die, Die My Darling",Misfits,"Earth A.D. / Die, Die My Darling",koyu's rock show #10,Playlist track,USCN38300017
Nightrain,Guns N' Roses,Appetite For Destruction,koyu's rock show #10,Playlist track,USGF18714803
Breaking the Law,Judas Priest,British Steel,koyu's rock show #10,Playlist track,GBBBN8000007
Stranglehold,Ted Nugent,Ted Nugent,koyu's rock show #10,Playlist track,USSM19804011
Stargazer,Rainbow,Rising,koyu's rock show #10,Playlist track,USPR37680077
The Last Refugee,Roger Waters,Is This The Life We Really Want?,koyu's rock show #10,Playlist track,USSM11702722
