Track name, Artist name, Album, Playlist name, Type, ISRC
Elimination,Overkill,The Years Of Decay,koyu's rock show S01E14,Playlist track,USAT20102802
Madhouse,Anthrax,Spreading The Disease,koyu's rock show S01E14,Playlist track,USIR20000364
Raining Blood,Slayer,Reign In Blood (Expanded),koyu's rock show S01E14,Playlist track,USSM18600241
Over the Wall,Testament,The Legacy,koyu's rock show S01E14,Playlist track,USAT29900641
Subliminal,Suicidal Tendencies,Suicidal Tendencies,koyu's rock show S01E14,Playlist track,USA6P0800019
Come to the Sabbath,Mercyful Fate,Don't Break the Oath,koyu's rock show S01E14,Playlist track,NLA329780543
Riding the Storm,Running Wild,Death or Glory,koyu's rock show S01E14,Playlist track,GBAJE0704929
Bonded by Blood,Exodus,Bonded by Blood,koyu's rock show S01E14,Playlist track,USSM11501836
Remain Violent,Warbringer,Woe To The Vanquished,koyu's rock show S01E14,Playlist track,ATN261770003
Wheels of Steel - 2009 Remastered Version,Saxon,Wheels of Steel (2009 Remastered Version),koyu's rock show S01E14,Playlist track,GB01A0900049
Hypertension,Razor,Violent Restitution (Deluxe Reissue),koyu's rock show S01E14,Playlist track,US2641527102
Combat Mosh,Lich King,Born Of The Bomb,koyu's rock show S01E14,Playlist track,ushm91261124
Acid Fuzz,Toxic Holocaust,Chemistry of Consciousness,koyu's rock show S01E14,Playlist track,US2641321206
Spiritual Healing,Death,Spiritual Healing,koyu's rock show S01E14,Playlist track,US2641220005
Addicted to Mosh,Violator,Chemical Assault,koyu's rock show S01E14,Playlist track,BRC770600042
Wake Up Dead - Remastered,Megadeth,Peace Sells...But Who's Buying?,koyu's rock show S01E14,Playlist track,USCA20400654
Black Magic,Slayer,Show No Mercy,koyu's rock show S01E14,Playlist track,USMBR1309934
The Toxic Waltz,Exodus,Fabulous Disaster,koyu's rock show S01E14,Playlist track,USSM11501870
The Last Refugee,Roger Waters,Is This The Life We Really Want?,koyu's rock show S01E14,Playlist track,USSM11702722
