Track name, Artist name, Album, Playlist name, Type, ISRC
Thunderstruck,AC/DC,The Razors Edge,koyu's rock show #6,Playlist track,AUAP09000014
Metal Health (Bang Your Head),Quiet Riot,Metal Health,koyu's rock show #6,Playlist track,USSM18200465
Symphony Of Destruction,Megadeth,Countdown To Extinction,koyu's rock show #6,Playlist track,USCA20400616
Paradise City,Guns N' Roses,Appetite For Destruction,koyu's rock show #6,Playlist track,USGF18714806
Born To Be Wild,Steppenwolf,Steppenwolf,koyu's rock show #6,Playlist track,USMC16846563
Runnin' with the Devil - 2015 Remaster,Van Halen,Van Halen (Remastered),koyu's rock show #6,Playlist track,USWB11403668
Knockin' On Heaven's Door,Guns N' Roses,Use Your Illusion II,koyu's rock show #6,Playlist track,USGF19142004
Children of the Grave,Black Sabbath,Master of Reality (2009 Remastered Version),koyu's rock show #6,Playlist track,GBAJE7100085
You've Got Another Thing Coming,Judas Priest,Screaming For Vengeance Special 30th Anniversary Edition,koyu's rock show #6,Playlist track,GBBBN8202007
Fear of the Dark - 2015 Remaster,Iron Maiden,Fear of the Dark (2015 Remaster),koyu's rock show #6,Playlist track,GBCHB1800082
Run to the Hills - 2015 Remaster,Iron Maiden,The Number of the Beast (2015 Remaster),koyu's rock show #6,Playlist track,GBCHB1800025
Computer God - 2011 Remaster,Black Sabbath,Dehumanizer,koyu's rock show #6,Playlist track,USCA21003159
I Want Out,Helloween,"Keeper of the Seven Keys, Pt. II (Expanded Edition)",koyu's rock show #6,Playlist track,GBAJE0200152
Smoke On The Water - Remastered 2012,Deep Purple,Machine Head (Remastered),koyu's rock show #6,Playlist track,GBDXG1200006
Immigrant Song - 2012 Remaster,Led Zeppelin,Led Zeppelin III (Remaster),koyu's rock show #6,Playlist track,USAT21300934
Rainbow In The Dark,Dio,Holy Diver,koyu's rock show #6,Playlist track,GBF080300553
Painkiller,Judas Priest,Painkiller,koyu's rock show #6,Playlist track,GBBBN0102557
The Last Refugee,Roger Waters,Is This The Life We Really Want?,koyu's rock show #6,Playlist track,USSM11702722
